{
    "data": {
        "id": "001",
        "name": "Berte",
        "lastName": "Geaney",
        "gender": "Female",
        "address": "549 Almo Point",
        "telephoneNumber": "5523452652",
        "email": "bgeaney0@nps.gov",
        "profile": "Developer Java",
        "transactionNumber": 21
    }
}